5 Height – Preceptor's Primer for Bayesian Data Science: Using the Cardinal Virtues for Inference
…
The dataset contains 10,000 entries from the 2009 survey, each representing an individual’s health and demographic information. Some values, like pulse and pregnancies, have missing data, and repeated values likely reflect individuals from the same household.

The dataset includes 15 variables covering physical attributes such as weight and height. For now, we focus on three: age, sex, and height.

nhanes |> 
  select(age, sex, height)

# A tibble: 10,000 × 3
     age sex    height
   <int> <chr>   <dbl>
 1    34 Male     165.
 2    34 Male     165.
 3    34 Male     165.
 4     4 Male     105.
 5    49 Female   168.
 6     9 Male     133.
 7     8 Male     131.
 8    45 Female   167.
 9    45 Female   167.
10    45 Female   167.
# ℹ 9,990 more rows
…
