5 Two Parameters – Preceptor's Primer for Bayesian Data Science: Using the Cardinal Virtues for Inference
…
This nhanes table contains 10,000 entries from the 2009 survey, each representing an individual’s health and demographic data. The dataset includes repeated values, likely from individuals in the same household, and has some missing data in variables like pulse and pregnancies.

nhanes includes 15 variables, including physical attributes like weight and height. Let’s restrict our attention to three variables: age, sex and height.

nhanes |> 
  select(age, sex, height)

# A tibble: 10,000 × 3
     age sex    height
   <int> <chr>   <dbl>
 1    34 Male     165.
 2    34 Male     165.
 3    34 Male     165.
 4     4 Male     105.
 5    49 Female   168.
 6     9 Male     133.
 7     8 Male     131.
 8    45 Female   167.
 9    45 Female   167.
10    45 Female   167.
# ℹ 9,990 more rows
…
